{
  "main": {
    "id": "9ed0862569e33c84",
    "type": "split",
    "children": [
      {
        "id": "a40baca097407118",
        "type": "tabs",
        "children": [
          {
            "id": "78641aebabe148a9",
            "type": "leaf",
            "state": {
              "type": "image",
              "state": {
                "file": "Tutorials/Getting Started/Gizmos.png"
              }
            }
          },
          {
            "id": "2e75a962a5cc41b3",
            "type": "leaf",
            "state": {
              "type": "release-notes",
              "state": {
                "currentVersion": "1.6.3"
              }
            }
          }
        ],
        "currentTab": 1
      }
    ],
    "direction": "vertical"
  },
  "left": {
    "id": "b75ff68873106890",
    "type": "split",
    "children": [
      {
        "id": "a25ed8d12af82d12",
        "type": "tabs",
        "children": [
          {
            "id": "aeda6b511e1af1de",
            "type": "leaf",
            "state": {
              "type": "file-explorer",
              "state": {
                "sortOrder": "alphabetical"
              }
            }
          },
          {
            "id": "7b1e5a1152bb77d8",
            "type": "leaf",
            "state": {
              "type": "search",
              "state": {
                "query": "",
                "matchingCase": false,
                "explainSearch": false,
                "collapseAll": false,
                "extraContext": false,
                "sortOrder": "alphabetical"
              }
            }
          },
          {
            "id": "dbce563ec3711743",
            "type": "leaf",
            "state": {
              "type": "bookmarks",
              "state": {}
            }
          }
        ]
      }
    ],
    "direction": "horizontal",
    "width": 344.5004348754883
  },
  "right": {
    "id": "4f77cd265fe811b4",
    "type": "split",
    "children": [
      {
        "id": "d2019e33f3f16d6f",
        "type": "tabs",
        "children": [
          {
            "id": "a7dbcf8fe36f21ba",
            "type": "leaf",
            "state": {
              "type": "backlink",
              "state": {
                "file": "Tutorials/Getting Started/Gizmos.png",
                "collapseAll": false,
                "extraContext": false,
                "sortOrder": "alphabetical",
                "showSearch": false,
                "searchQuery": "",
                "backlinkCollapsed": false,
                "unlinkedCollapsed": true
              }
            }
          },
          {
            "id": "b66c903eaccc119f",
            "type": "leaf",
            "state": {
              "type": "outgoing-link",
              "state": {
                "file": "Tutorials/Getting Started/Gizmos.png",
                "linksCollapsed": false,
                "unlinkedCollapsed": true
              }
            }
          },
          {
            "id": "0aa94d635e7dfc0f",
            "type": "leaf",
            "state": {
              "type": "tag",
              "state": {
                "sortOrder": "frequency",
                "useHierarchy": true
              }
            }
          },
          {
            "id": "93b2215bf9c9e570",
            "type": "leaf",
            "state": {
              "type": "outline",
              "state": {
                "file": "Tutorials/Getting Started/Gizmos.png"
              }
            }
          }
        ]
      }
    ],
    "direction": "horizontal",
    "width": 300,
    "collapsed": true
  },
  "left-ribbon": {
    "hiddenItems": {
      "switcher:Open quick switcher": false,
      "graph:Open graph view": false,
      "canvas:Create new canvas": false,
      "daily-notes:Open today's daily note": false,
      "templates:Insert template": false,
      "command-palette:Open command palette": false
    }
  },
  "active": "2e75a962a5cc41b3",
  "lastOpenFiles": [
    "Tutorials/Getting Started/Getting started.md",
    "Tutorials/Getting Started/Blender Object Mode location.png",
    "Tutorials/Getting Started/Object Transform.png",
    "Documentation/Navigating the view.md",
    "Tutorials/Getting Started/Gizmos.png",
    "Tutorials/Tutorial Rendering.md",
    "Tutorials/Tutorial Transforms and the maths behind 3D graphics.md",
    "Documentation/Modes/Modes.md",
    "Documentation/Scenes/Objects.md",
    "Tutorials/Getting Started/Active and Passive selections.png",
    "Tutorials/Getting Started",
    "Tutorials/Tutorials.md",
    "Blender Docs.md",
    "Curves.md",
    "Tutorials/Getting Started/Getting started_Adding an Object.png",
    "Documentation/Modes/Mesh/Edit Mode (Mesh).md",
    "Documentation/Modes/Mesh/Texture Paint Mode (Mesh).md",
    "Documentation/Modes/Text",
    "Documentation/Modes/Surface",
    "Documentation/Modes/MetaBall",
    "Documentation/Modes/Lattice",
    "Documentation/Modes/Empty",
    "Documentation/Modes/Curve",
    "Documentation/Modes/Armature",
    "Documentation/Modes/Grease Pencil",
    "Documentation/Modes/Mesh/Sculpt Mode (Mesh).md",
    "Documentation/Modes/Mesh",
    "Documentation/Modes/Empty/Edit Mode (Empties).md",
    "Documentation/Modes/Lattice/Edit Mode (Lattice).md",
    "Documentation/Modes/Armature/Pose Mode (Armature).md",
    "Documentation/Modes/Armature/Edit Mode (Armature).md",
    "Documentation/Modes/Grease Pencil/Weight Paint Mode (Grease Pencil).md",
    "Documentation/Modes/Grease Pencil/Vertex Paint Mode (Grease Pencil).md",
    "Documentation/Modes/Grease Pencil/Draw Mode (Grease Pencil).md",
    "Documentation/Modes/Grease Pencil/Scuplt Mode (Grease Pencil).md",
    "Documentation/Modes/Grease Pencil/Edit Mode (Grease Pencil).md",
    "Documentation/Modes/Text/Edit Mode (Text).md",
    "Documentation/Modes/MetaBall/Edit Mode (MetaBall).md",
    "Documentation/Modes/Surface/Edit Mode (Surface).md",
    "Documentation/Modes/Curve/Edit Mode (Curve).md",
    "Tutorials/Getting Started/Blender Default view.png",
    "Documentation/Restrictions.png",
    "Documentation/Scenes/Collections_Colouring.png",
    "Documentation/Scenes/Collections_Creation.png",
    "Documentation/Navigating the view_Focusing.png"
  ]
}